…
This dataset gives the number of telephones in various regions of the world (in thousands). The regions are: North America, Europe, Asia, South America, Oceania, Africa, Central America and data are available for the years 1951, 1956, 1957, 1958, 1959, 1960, 1961.

Use the functions in `dplyr` and `tidyr` to produce a data frame that looks like this.


```r
library(dplyr)
library(tidyr)
tbl_df(WorldPhones) %>% 
        mutate(year = row.names(WorldPhones)) %>%
        gather(country, number, -year)
```

```
# A tibble: 49 × 3
    year country number
   <chr>   <chr>  <dbl>
1   1951  N.Amer  45939
2   1956  N.Amer  60423
3   1957  N.Amer  64721
4   1958  N.Amer  68484
5   1959  N.Amer  71799
6   1960  N.Amer  76036
7   1961  N.Amer  79831
8   1951  Europe  21574
9   1956  Europe  29990
10  1957  Europe  32510
# ... with 39 more rows
```
…
2. Calculate the average of each chemical constituent across all states/monitors and all time points. Which constituent has the highest average level?


```r
group_by(spec, Parameter.Name) %>% 
        summarize(avg = mean(Sample.Value)) %>%
        arrange(desc(avg))                          
```

```
# A tibble: 86 × 2
                       Parameter.Name        avg
                                <chr>      <dbl>
1      OC CSN Unadjusted PM2.5 LC TOT 67.7838260
2                 EC CSN PM2.5 LC TOT  8.2065824
3           Total Carbon PM2.5 LC TOT  3.1132523
4  OC CSN_Rev Unadjusted PM2.5 LC TOT  2.3100559
5  OC CSN_Rev Unadjusted PM2.5 LC TOR  2.1695842
6                    Sulfate PM2.5 LC  1.1651597
7                     OC PM2.5 LC TOR  0.8511244
8              Total Nitrate PM2.5 LC  0.8224759
9     EC1 CSN_Rev Unadjusted PM2.5 LC  0.8091627
10              Ammonium Ion PM2.5 LC  0.7000858
# ... with 76 more rows
```

3. Which monitoring site has the highest levels of "Sulfate PM2.5 LC"? Indicate the state code, county code, and site number.


```r
filter(spec, Parameter.Name == "Sulfate PM2.5 LC") %>%
        group_by(State.Code, County.Code, Site.Num) %>%
        summarize(avg = mean(Sample.Value)) %>%
        arrange(desc(avg))
```

```
Source: local data frame [358 x 4]
Groups: State.Code, County.Code [313]

   State.Code County.Code Site.Num      avg
        <chr>       <chr>    <chr>    <dbl>
1          39         081     0017 3.182189
2          42         003     0064 3.055483
3          54         039     1005 2.938800
4          18         019     0006 2.738700
5          39         153     0023 2.706449
6          39         035     0060 2.640185
7          39         087     0012 2.638311
8          54         051     1002 2.619043
9          21         111     0067 2.549750
10         18         037     2001 2.516367
# ... with 348 more rows
```
…
